{
    "paths": [
        {
            "name": "/movieapi",
            "lambdaFunction": "movieAPIFunc",
            "privacy": {
                "open": true
            },
            "policyResourceName": "/movieapi"
        }
    ],
    "resourceName": "movieAPI",
    "apiName": "movieAPI",
    "functionArns": [
        {
            "lambdaFunction": "movieAPIFunc"
        }
    ],
    "privacy": {
        "auth": 0,
        "unauth": 0,
        "authRoleName": "amplify-fixenova-dev-165522-authRole",
        "unAuthRoleName": "amplify-fixenova-dev-165522-unauthRole"
    },
    "dependsOn": [
        {
            "category": "function",
            "resourceName": "movieAPIFunc",
            "attributes": [
                "Name",
                "Arn"
            ]
        }
    ]
}